<?xml version="1.0" encoding="UTF-8"?>
<svg width="13px" height="26px" viewBox="0 0 13 26" version="1.1" xmlns="http://www.w3.org/2000/svg" xmlns:xlink="http://www.w3.org/1999/xlink">
    <!-- Generator: Sketch 53 (72520) - https://sketchapp.com -->
    <title>Path</title>
    <desc>Created with Sketch.</desc>
    <g id="Symbols" stroke="none" stroke-width="1" fill="none" fill-rule="evenodd">
        <g id="icon/silider-arrow" transform="translate(-12.000000, 0.000000)" stroke="#171717">
            <polyline id="Path" transform="translate(13.000000, 13.000000) rotate(-315.000000) translate(-13.000000, -13.000000) " points="4 4 20.7272078 5.27279221 22 22"></polyline>
        </g>
    </g>
</svg>